demo.R
…
# Scraping (P2000).
drimble_scrape <- read_html("https://drimble.nl/112/amsterdam/index_p") %>%   # read in page
  html_nodes(".content") %>%        # grab the content table
  html_table() %>%                  # convert to table
  pluck(1) %>%                      # grab relevant info
  row_to_names(row_number = 1) %>%  # create variable name
  clean_names()                     # clean variable names

# Show.
drimble_scrape

## # A tibble: 24 x 3
##    datum     tijd  x112_melding                                                 
##    <chr>     <chr> <chr>                                                        
##  1 13-09-20~ 19:00 Ambulance met normale urgentie naar Hogevecht, AmsterdamA2 1~
##  2 13-09-20~ 18:55 Ambulance met normale urgentie naar Topaasstraat, AmsterdamA~
##  3 13-09-20~ 18:50 Ambulance met normale urgentie naar Hogevecht, AmsterdamA2 1~
##  4 13-09-20~ 18:45 Brandweer met normale urgentie naar liftopsluiting gemeld op~
##  5 13-09-20~ 18:42 Ambulance met hoge urgentie naar Derde Kostverlorenkade, Ams~
##  6 13-09-20~ 18:30 Ambulance met hoge urgentie naar Spanderswoudstraat, Amsterd~
##  7 13-09-20~ 18:29 Brandweer met hoge urgentie naar Spanderswoudstraat, Amsterd~
##  8 13-09-20~ 18:21 Brandweer met hoge urgentie naar Woestduinstraat, AmsterdamP~
##  9 13-09-20~ 18:18 Begeleidend ambulancevervoer met eventuele medische behandel~
## 10 13-09-20~ 18:14 Brandweer met hoge urgentie naar Naritaweg, AmsterdamP 1 BAD~
## # ... with 14 more rows
